EESchema Schematic File Version 2
LIBS:power
LIBS:device
LIBS:transistors
LIBS:conn
LIBS:linear
LIBS:regul
LIBS:74xx
LIBS:cmos4000
LIBS:adc-dac
LIBS:memory
LIBS:xilinx
LIBS:microcontrollers
LIBS:dsp
LIBS:microchip
LIBS:analog_switches
LIBS:motorola
LIBS:texas
LIBS:intel
LIBS:audio
LIBS:interface
LIBS:digital-audio
LIBS:philips
LIBS:display
LIBS:cypress
LIBS:siliconi
LIBS:opto
LIBS:atmel
LIBS:contrib
LIBS:valves
LIBS:KiMBo
LIBS:rambo_13
LIBS:GLCD
LIBS:Quiver_Dual_Interface-cache
EELAYER 25 0
EELAYER END
$Descr A4 11693 8268
encoding utf-8
Sheet 1 1
Title ""
Date ""
Rev ""
Comp ""
Comment1 ""
Comment2 ""
Comment3 ""
Comment4 ""
$EndDescr
Wire Wire Line
	2200 1900 6600 1900
Wire Wire Line
	2200 2000 2400 2000
Wire Wire Line
	2400 2000 2400 1900
Connection ~ 2400 1900
Connection ~ 3500 1900
Wire Wire Line
	6200 2500 9400 2500
Wire Wire Line
	6100 2600 9400 2600
Wire Wire Line
	10500 4700 10500 2500
Wire Wire Line
	10500 2500 9900 2500
Wire Wire Line
	9900 2600 10400 2600
Wire Wire Line
	10400 2600 10400 4800
Wire Wire Line
	1700 1700 900  1700
Wire Wire Line
	900  1700 900  5100
Wire Wire Line
	1700 1800 1000 1800
Wire Wire Line
	1000 1800 1000 5200
Wire Wire Line
	2200 1700 3300 1700
Wire Wire Line
	3300 1700 3300 3500
Wire Wire Line
	3200 3400 3200 1800
Wire Wire Line
	3200 1800 2200 1800
Wire Wire Line
	1100 5300 1100 1900
Wire Wire Line
	1100 1900 1700 1900
Wire Wire Line
	1200 5400 1200 2000
Wire Wire Line
	1200 2000 1700 2000
Wire Wire Line
	5100 5100 5100 4600
Wire Wire Line
	900  5100 5100 5100
Wire Wire Line
	5200 4600 5200 5200
Wire Wire Line
	5200 5200 1000 5200
Wire Wire Line
	5100 4100 5100 3500
Wire Wire Line
	5100 3500 3300 3500
Wire Wire Line
	5200 4100 5200 3400
Wire Wire Line
	5200 3400 3200 3400
Wire Wire Line
	5300 4600 5300 5300
Wire Wire Line
	5300 5300 1100 5300
Wire Wire Line
	1200 5400 10700 5400
Wire Wire Line
	6100 4100 6100 2600
Wire Wire Line
	6200 4100 6200 2500
Wire Wire Line
	6100 4600 6100 4800
Wire Wire Line
	6100 4800 10400 4800
Wire Wire Line
	10500 4700 6200 4700
Wire Wire Line
	6200 4700 6200 4600
Wire Wire Line
	6600 1900 6600 2300
Wire Wire Line
	6600 2300 9400 2300
Wire Wire Line
	9400 2400 9000 2400
Wire Wire Line
	9000 2400 9000 2300
Connection ~ 9000 2300
Wire Wire Line
	8200 2200 9400 2200
Wire Wire Line
	8200 2100 2200 2100
Connection ~ 8200 2100
Wire Wire Line
	9900 1800 10700 1800
Wire Wire Line
	1350 2500 1700 2500
Wire Wire Line
	1350 2100 1350 3000
$Comp
L GND #PWR01
U 1 1 5AD0D66C
P 1350 3000
F 0 "#PWR01" H 1350 2750 50  0001 C CNN
F 1 "GND" H 1350 2850 50  0000 C CNN
F 2 "" H 1350 3000 50  0000 C CNN
F 3 "" H 1350 3000 50  0000 C CNN
	1    1350 3000
	1    0    0    -1  
$EndComp
Wire Wire Line
	9900 2400 10600 2400
Wire Wire Line
	10600 2400 10600 4900
Wire Wire Line
	10600 4900 6000 4900
Wire Wire Line
	6000 4900 6000 4600
Wire Wire Line
	9900 2300 10700 2300
Wire Wire Line
	10700 2300 10700 5400
Connection ~ 5500 5400
Wire Wire Line
	3800 2500 2200 2500
Wire Wire Line
	9400 1800 8400 1800
Wire Wire Line
	8400 1800 8400 3700
Wire Wire Line
	8400 3700 5800 3700
NoConn ~ 9900 1700
NoConn ~ 9400 1700
NoConn ~ 9400 1900
NoConn ~ 9400 2000
NoConn ~ 9400 2100
NoConn ~ 9900 2000
NoConn ~ 9900 2100
Wire Wire Line
	10300 2200 9900 2200
Connection ~ 10300 1800
Wire Wire Line
	1700 2100 1350 2100
Connection ~ 1350 2500
NoConn ~ 1700 2200
NoConn ~ 1700 2300
NoConn ~ 1700 2600
NoConn ~ 2200 2600
NoConn ~ 2200 2200
NoConn ~ 2200 2300
NoConn ~ 2200 2400
$Comp
L GND #PWR02
U 1 1 5AD0E67B
P 5900 5100
F 0 "#PWR02" H 5900 4850 50  0001 C CNN
F 1 "GND" H 5900 4950 50  0000 C CNN
F 2 "" H 5900 5100 50  0000 C CNN
F 3 "" H 5900 5100 50  0000 C CNN
	1    5900 5100
	1    0    0    -1  
$EndComp
Wire Wire Line
	5600 4600 5600 4800
Wire Wire Line
	5400 4800 5900 4800
Connection ~ 5700 4800
$Comp
L +24V #PWR03
U 1 1 5AD0E88C
P 3500 800
F 0 "#PWR03" H 3500 650 50  0001 C CNN
F 1 "+24V" H 3500 940 50  0000 C CNN
F 2 "" H 3500 800 50  0000 C CNN
F 3 "" H 3500 800 50  0000 C CNN
	1    3500 800 
	1    0    0    -1  
$EndComp
$Comp
L PWR_FLAG #FLG04
U 1 1 5AD0E8B8
P 3000 1000
F 0 "#FLG04" H 3000 1095 50  0001 C CNN
F 1 "PWR_FLAG" H 3000 1180 50  0000 C CNN
F 2 "" H 3000 1000 50  0000 C CNN
F 3 "" H 3000 1000 50  0000 C CNN
	1    3000 1000
	1    0    0    -1  
$EndComp
Connection ~ 3500 1300
Wire Wire Line
	3000 1000 3000 1300
$Comp
L +5V #PWR05
U 1 1 5AD0E9F2
P 8200 900
F 0 "#PWR05" H 8200 750 50  0001 C CNN
F 1 "+5V" H 8200 1040 50  0000 C CNN
F 2 "" H 8200 900 50  0000 C CNN
F 3 "" H 8200 900 50  0000 C CNN
	1    8200 900 
	1    0    0    -1  
$EndComp
Connection ~ 8200 1000
$Comp
L PWR_FLAG #FLG06
U 1 1 5AD0EA9F
P 8700 850
F 0 "#FLG06" H 8700 945 50  0001 C CNN
F 1 "PWR_FLAG" H 8700 1030 50  0000 C CNN
F 2 "" H 8700 850 50  0000 C CNN
F 3 "" H 8700 850 50  0000 C CNN
	1    8700 850 
	1    0    0    -1  
$EndComp
Wire Wire Line
	8700 850  8700 1100
$Comp
L PWR_FLAG #FLG07
U 1 1 5AD0EC2B
P 10300 1200
F 0 "#FLG07" H 10300 1295 50  0001 C CNN
F 1 "PWR_FLAG" H 10300 1380 50  0000 C CNN
F 2 "" H 10300 1200 50  0000 C CNN
F 3 "" H 10300 1200 50  0000 C CNN
	1    10300 1200
	1    0    0    -1  
$EndComp
$Comp
L CONN_01X03 P2
U 1 1 5AD0ED67
P 3300 6600
F 0 "P2" V 3300 6850 50  0000 C CNN
F 1 "CONN_01X03" V 3400 6600 50  0000 C CNN
F 2 "Connectors:PINHEAD1-3" H 3300 6600 50  0001 C CNN
F 3 "" H 3300 6600 50  0000 C CNN
	1    3300 6600
	1    0    0    -1  
$EndComp
$Comp
L CONN_01X03 P3
U 1 1 5AD0EE53
P 6500 6600
F 0 "P3" V 6500 6850 50  0000 C CNN
F 1 "CONN_01X03" V 6600 6600 50  0000 C CNN
F 2 "Connectors:PINHEAD1-3" H 6500 6600 50  0001 C CNN
F 3 "" H 6500 6600 50  0000 C CNN
	1    6500 6600
	1    0    0    -1  
$EndComp
Wire Wire Line
	5600 3350 5600 4100
Wire Wire Line
	5700 3550 5700 4100
$Comp
L +24V #PWR08
U 1 1 5AD0F064
P 5600 3350
F 0 "#PWR08" H 5600 3200 50  0001 C CNN
F 1 "+24V" H 5600 3490 50  0000 C CNN
F 2 "" H 5600 3350 50  0000 C CNN
F 3 "" H 5600 3350 50  0000 C CNN
	1    5600 3350
	1    0    0    -1  
$EndComp
$Comp
L GND #PWR09
U 1 1 5AD0F311
P 2500 7500
F 0 "#PWR09" H 2500 7250 50  0001 C CNN
F 1 "GND" H 2500 7350 50  0000 C CNN
F 2 "" H 2500 7500 50  0000 C CNN
F 3 "" H 2500 7500 50  0000 C CNN
	1    2500 7500
	1    0    0    -1  
$EndComp
$Comp
L +5V #PWR010
U 1 1 5AD0F490
P 2500 5650
F 0 "#PWR010" H 2500 5500 50  0001 C CNN
F 1 "+5V" H 2500 5790 50  0000 C CNN
F 2 "" H 2500 5650 50  0000 C CNN
F 3 "" H 2500 5650 50  0000 C CNN
	1    2500 5650
	1    0    0    -1  
$EndComp
Wire Wire Line
	6000 3800 3650 3800
Wire Wire Line
	5300 3700 600  3700
$Comp
L CONN_01X02 P4
U 1 1 5AD60E32
P 7150 1450
F 0 "P4" V 7150 1650 50  0000 C CNN
F 1 "CONN_01X02" V 7250 1450 50  0000 C CNN
F 2 "Pin_Headers:Pin_Header_Straight_1x02" H 7150 1450 50  0001 C CNN
F 3 "" H 7150 1450 50  0000 C CNN
	1    7150 1450
	0    1    1    0   
$EndComp
$Comp
L GND #PWR011
U 1 1 5AD61043
P 7600 1400
F 0 "#PWR011" H 7600 1150 50  0001 C CNN
F 1 "GND" H 7600 1250 50  0000 C CNN
F 2 "" H 7600 1400 50  0000 C CNN
F 3 "" H 7600 1400 50  0000 C CNN
	1    7600 1400
	1    0    0    -1  
$EndComp
Wire Wire Line
	7200 1250 7200 1150
Wire Wire Line
	7200 1150 7600 1150
Wire Wire Line
	7600 1150 7600 1400
$Comp
L +5V #PWR012
U 1 1 5AD61101
P 7100 900
F 0 "#PWR012" H 7100 750 50  0001 C CNN
F 1 "+5V" H 7100 1040 50  0000 C CNN
F 2 "" H 7100 900 50  0000 C CNN
F 3 "" H 7100 900 50  0000 C CNN
	1    7100 900 
	1    0    0    -1  
$EndComp
Wire Wire Line
	7100 1250 7100 900 
$Comp
L CONN_01X01 MH1
U 1 1 5AD615AA
P 5000 900
F 0 "MH1" V 5100 900 50  0000 C CNN
F 1 "CONN_01X01" V 5100 900 50  0001 C CNN
F 2 "AO Parts:MH_M3x6mm" H 5000 900 50  0001 C CNN
F 3 "" H 5000 900 50  0000 C CNN
	1    5000 900 
	0    -1   -1   0   
$EndComp
$Comp
L CONN_01X01 MH2
U 1 1 5AD61951
P 5500 900
F 0 "MH2" V 5600 900 50  0000 C CNN
F 1 "CONN_01X01" V 5600 900 50  0001 C CNN
F 2 "AO Parts:MH_M3x6mm" H 5500 900 50  0001 C CNN
F 3 "" H 5500 900 50  0000 C CNN
	1    5500 900 
	0    -1   -1   0   
$EndComp
$Comp
L CONN_01X01 MH3
U 1 1 5AD619D4
P 6000 900
F 0 "MH3" V 6100 900 50  0000 C CNN
F 1 "CONN_01X01" V 6100 900 50  0001 C CNN
F 2 "AO Parts:MH_M3x6mm" H 6000 900 50  0001 C CNN
F 3 "" H 6000 900 50  0000 C CNN
	1    6000 900 
	0    -1   -1   0   
$EndComp
$Comp
L CONN_01X01 MH4
U 1 1 5AD61B67
P 6500 900
F 0 "MH4" V 6600 900 50  0000 C CNN
F 1 "CONN_01X01" V 6600 900 50  0001 C CNN
F 2 "AO Parts:MH_M3x6mm" H 6500 900 50  0001 C CNN
F 3 "" H 6500 900 50  0000 C CNN
	1    6500 900 
	0    -1   -1   0   
$EndComp
$Comp
L GND #PWR013
U 1 1 5AD62221
P 5000 1300
F 0 "#PWR013" H 5000 1050 50  0001 C CNN
F 1 "GND" H 5000 1150 50  0000 C CNN
F 2 "" H 5000 1300 50  0000 C CNN
F 3 "" H 5000 1300 50  0000 C CNN
	1    5000 1300
	1    0    0    -1  
$EndComp
$Comp
L GND #PWR014
U 1 1 5AD62253
P 5500 1300
F 0 "#PWR014" H 5500 1050 50  0001 C CNN
F 1 "GND" H 5500 1150 50  0000 C CNN
F 2 "" H 5500 1300 50  0000 C CNN
F 3 "" H 5500 1300 50  0000 C CNN
	1    5500 1300
	1    0    0    -1  
$EndComp
$Comp
L GND #PWR015
U 1 1 5AD622FD
P 6000 1300
F 0 "#PWR015" H 6000 1050 50  0001 C CNN
F 1 "GND" H 6000 1150 50  0000 C CNN
F 2 "" H 6000 1300 50  0000 C CNN
F 3 "" H 6000 1300 50  0000 C CNN
	1    6000 1300
	1    0    0    -1  
$EndComp
$Comp
L GND #PWR016
U 1 1 5AD6233E
P 6500 1300
F 0 "#PWR016" H 6500 1050 50  0001 C CNN
F 1 "GND" H 6500 1150 50  0000 C CNN
F 2 "" H 6500 1300 50  0000 C CNN
F 3 "" H 6500 1300 50  0000 C CNN
	1    6500 1300
	1    0    0    -1  
$EndComp
Wire Wire Line
	6500 1100 6500 1300
Wire Wire Line
	6000 1100 6000 1300
Wire Wire Line
	5500 1100 5500 1300
Wire Wire Line
	5000 1100 5000 1300
$Comp
L AO_CONN_02X10 P1
U 1 1 5AD630F7
P 1950 2150
F 0 "P1" H 1950 2700 50  0000 C CNN
F 1 "AO_CONN_02X10" V 1950 2150 50  0000 C CNN
F 2 "Connectors_Molex:Molex_Microfit3_Header_02x10_Angled_43045-200x" H 1950 950 50  0001 C CNN
F 3 "" H 1950 950 50  0000 C CNN
	1    1950 2150
	1    0    0    -1  
$EndComp
$Comp
L AO_CONN_02X10 P6
U 1 1 5AD636CE
P 9650 2150
F 0 "P6" H 9650 1600 50  0000 C CNN
F 1 "AO_CONN_02X10" V 9650 2150 50  0000 C CNN
F 2 "Connectors_Molex:Molex_Microfit3_Header_02x10_Angled_43045-200x" H 9650 950 50  0001 C CNN
F 3 "" H 9650 950 50  0000 C CNN
	1    9650 2150
	-1   0    0    1   
$EndComp
$Comp
L AO_CONN_02X12 P5
U 1 1 5AD64831
P 5650 4350
F 0 "P5" V 5650 5050 50  0000 C CNN
F 1 "AO_CONN_02X12" V 5650 4350 50  0000 C CNN
F 2 "Connectors_Molex:Molex_Microfit3_Header_02x12_Straight_43045-2428" H 5650 3150 50  0001 C CNN
F 3 "" H 5650 3150 50  0000 C CNN
	1    5650 4350
	0    -1   -1   0   
$EndComp
NoConn ~ 5800 4600
Wire Wire Line
	1700 2400 1350 2400
Connection ~ 1350 2400
Wire Wire Line
	10300 1900 9900 1900
Connection ~ 10300 1900
NoConn ~ 14950 2100
Text Notes 7250 4700 0    60   ~ 0
E0 STEPPER BLK
Text Notes 7250 4800 0    60   ~ 0
E0 STEPPER BLU or WHT
Text Notes 7250 2500 0    60   ~ 0
E0 STEPPER GRN
Text Notes 7250 2600 0    60   ~ 0
E0 STEPPER RED
Text Notes 1750 1400 0    60   ~ 0
EXTRUDER 1
Text Notes 9400 1400 0    60   ~ 0
EXTRUDER 0
Text Notes 3700 3500 0    60   ~ 0
E1 STEPPER RED
Text Notes 3700 3400 0    60   ~ 0
E1 STEPPER GRN
Text Notes 3850 5100 0    60   ~ 0
E1 STEPPER BLU or WHT
Text Notes 3850 5200 0    60   ~ 0
E1 STEPPER BLK
Text Notes 3050 6200 0    60   ~ 0
E1 SERVO
Text Notes 6250 6200 0    60   ~ 0
E0 SERVO
Text Notes 3950 3700 0    60   ~ 0
E1 SERVO SIGNAL
Text Notes 3950 3800 0    60   ~ 0
E0 SERVO SIGNAL
Text Notes 2400 2500 0    60   ~ 0
E1 THERMISTOR
Text Notes 3850 5300 0    60   ~ 0
E1 HEATER
Text Notes 7250 4900 0    60   ~ 0
E0 HEATER
Text Notes 8600 1800 0    60   ~ 0
E0 THERMISTOR
Text Notes 3850 5400 0    60   ~ 0
E1 24V SHROUD FAN
Text Notes 3700 1900 0    60   ~ 0
+24V
Text Notes 2800 2100 0    60   ~ 0
+5V
Text Notes 900  1200 0    60   ~ 0
STEPPER            IGUS CABLE\n\nBLU or WHT         BRN\nRED                 WHT\nGRN                 GRN\nBLK                 YEL
Text Notes 2500 1700 0    60   ~ 0
RED
Text Notes 2500 1800 0    60   ~ 0
GRN
Text Notes 1250 1700 0    60   ~ 0
WHT
Text Notes 1250 1800 0    60   ~ 0
BLK
Text Notes 1250 1900 0    60   ~ 0
HEATER
Text Notes 1250 2000 0    60   ~ 0
SH_FAN
Text Notes 2500 1900 0    60   ~ 0
+24V
Text Notes 2500 2100 0    60   ~ 0
E_FAN
Text Notes 1650 3150 0    60   ~ 0
Z-PROBE, 5V FAN NEG\nAND THERMISTOR\nLOW SIDE ARE\nCONNECTED TO GND
Text Notes 8900 3150 0    60   ~ 0
Z-PROBE, 5V FAN NEG\nAND THERMISTOR\nLOW SIDE ARE\nCONNECTED TO GND
Text Notes 10000 2600 0    60   ~ 0
WHT
Text Notes 10000 2500 0    60   ~ 0
BLK
Text Notes 9100 2500 0    60   ~ 0
GRN
Text Notes 9100 2600 0    60   ~ 0
RED
Text Notes 9050 2300 0    60   ~ 0
+24V
Text Notes 10000 2400 0    60   ~ 0
HEATER
Text Notes 10000 2300 0    60   ~ 0
SH_FAN
Text Notes 6350 3650 0    60   ~ 0
E0 THERMISTOR
Text Notes 4550 3250 0    60   ~ 0
E1 THERMISTOR
Text Notes 8900 3550 0    60   ~ 0
HIGH SIDE OF HEATER\nAND SHROUD FAN\nARE CONNECTED TO +24V
Text Notes 1650 3550 0    60   ~ 0
HIGH SIDE OF HEATER\nAND SHROUD FAN\nARE CONNECTED TO +24V
Text Notes 7250 5400 0    60   ~ 0
E0 24V SHROUD FAN
Text Notes 8600 2200 0    60   ~ 0
E_FAN
Text Notes 8900 2200 0    60   ~ 0
+5V
$Comp
L +5V #PWR017
U 1 1 5B0D6B1B
P 5700 3550
F 0 "#PWR017" H 5700 3400 50  0001 C CNN
F 1 "+5V" H 5700 3690 50  0000 C CNN
F 2 "" H 5700 3550 50  0000 C CNN
F 3 "" H 5700 3550 50  0000 C CNN
	1    5700 3550
	1    0    0    -1  
$EndComp
Wire Wire Line
	3000 1300 3500 1300
Wire Wire Line
	8200 1000 8700 1000
$Comp
L 2N7002 Q4
U 1 1 5B51F9F5
P 5600 6900
F 0 "Q4" H 5800 6975 50  0000 L CNN
F 1 "2N7002" H 5800 6900 50  0000 L CNN
F 2 "TO_SOT_Packages_SMD:SOT-23" H 5800 6825 50  0001 L CIN
F 3 "" H 5600 6900 50  0000 L CNN
	1    5600 6900
	1    0    0    -1  
$EndComp
Wire Wire Line
	3500 800  3500 1900
Wire Wire Line
	8200 900  8200 2200
$Comp
L 2N7002 Q3
U 1 1 5B5211A8
P 4700 6800
F 0 "Q3" H 4900 6875 50  0000 L CNN
F 1 "2N7002" H 4900 6800 50  0000 L CNN
F 2 "TO_SOT_Packages_SMD:SOT-23" H 4900 6725 50  0001 L CIN
F 3 "" H 4700 6800 50  0000 L CNN
	1    4700 6800
	1    0    0    -1  
$EndComp
$Comp
L 2N7002 Q2
U 1 1 5B521217
P 2400 6900
F 0 "Q2" H 2600 6975 50  0000 L CNN
F 1 "2N7002" H 2600 6900 50  0000 L CNN
F 2 "TO_SOT_Packages_SMD:SOT-23" H 2600 6825 50  0001 L CIN
F 3 "" H 2400 6900 50  0000 L CNN
	1    2400 6900
	1    0    0    -1  
$EndComp
$Comp
L 2N7002 Q1
U 1 1 5B521274
P 1500 6800
F 0 "Q1" H 1700 6875 50  0000 L CNN
F 1 "2N7002" H 1700 6800 50  0000 L CNN
F 2 "TO_SOT_Packages_SMD:SOT-23" H 1700 6725 50  0001 L CIN
F 3 "" H 1500 6800 50  0000 L CNN
	1    1500 6800
	1    0    0    -1  
$EndComp
$Comp
L R R10
U 1 1 5B52131F
P 5700 6150
F 0 "R10" V 5780 6150 50  0000 C CNN
F 1 "4.7k" V 5700 6150 50  0000 C CNN
F 2 "Resistors_SMD:R_0603_HandSoldering" V 5630 6150 50  0001 C CNN
F 3 "" H 5700 6150 50  0000 C CNN
	1    5700 6150
	1    0    0    -1  
$EndComp
$Comp
L R R8
U 1 1 5B521420
P 4800 6050
F 0 "R8" V 4880 6050 50  0000 C CNN
F 1 "4.7k" V 4800 6050 50  0000 C CNN
F 2 "Resistors_SMD:R_0603_HandSoldering" V 4730 6050 50  0001 C CNN
F 3 "" H 4800 6050 50  0000 C CNN
	1    4800 6050
	1    0    0    -1  
$EndComp
$Comp
L R R5
U 1 1 5B521497
P 2500 6150
F 0 "R5" V 2580 6150 50  0000 C CNN
F 1 "4.7k" V 2500 6150 50  0000 C CNN
F 2 "Resistors_SMD:R_0603_HandSoldering" V 2430 6150 50  0001 C CNN
F 3 "" H 2500 6150 50  0000 C CNN
	1    2500 6150
	1    0    0    -1  
$EndComp
$Comp
L R R3
U 1 1 5B5214F6
P 1600 6050
F 0 "R3" V 1680 6050 50  0000 C CNN
F 1 "4.7k" V 1600 6050 50  0000 C CNN
F 2 "Resistors_SMD:R_0603_HandSoldering" V 1530 6050 50  0001 C CNN
F 3 "" H 1600 6050 50  0000 C CNN
	1    1600 6050
	1    0    0    -1  
$EndComp
$Comp
L R R9
U 1 1 5B52157B
P 5050 6400
F 0 "R9" V 5130 6400 50  0000 C CNN
F 1 "4.7k" V 5050 6400 50  0000 C CNN
F 2 "Resistors_SMD:R_0603_HandSoldering" V 4980 6400 50  0001 C CNN
F 3 "" H 5050 6400 50  0000 C CNN
	1    5050 6400
	0    1    1    0   
$EndComp
$Comp
L R R4
U 1 1 5B52160E
P 1850 6400
F 0 "R4" V 1930 6400 50  0000 C CNN
F 1 "4.7k" V 1850 6400 50  0000 C CNN
F 2 "Resistors_SMD:R_0603_HandSoldering" V 1780 6400 50  0001 C CNN
F 3 "" H 1850 6400 50  0000 C CNN
	1    1850 6400
	0    1    1    0   
$EndComp
$Comp
L R R1
U 1 1 5B52166B
P 850 6850
F 0 "R1" V 930 6850 50  0000 C CNN
F 1 "4.7k" V 850 6850 50  0000 C CNN
F 2 "Resistors_SMD:R_0603_HandSoldering" V 780 6850 50  0001 C CNN
F 3 "" H 850 6850 50  0000 C CNN
	1    850  6850
	0    1    1    0   
$EndComp
$Comp
L R R6
U 1 1 5B5216C0
P 4050 6850
F 0 "R6" V 4130 6850 50  0000 C CNN
F 1 "4.7k" V 4050 6850 50  0000 C CNN
F 2 "Resistors_SMD:R_0603_HandSoldering" V 3980 6850 50  0001 C CNN
F 3 "" H 4050 6850 50  0000 C CNN
	1    4050 6850
	0    1    1    0   
$EndComp
$Comp
L R R7
U 1 1 5B521745
P 4300 7100
F 0 "R7" V 4380 7100 50  0000 C CNN
F 1 "100k" V 4300 7100 50  0000 C CNN
F 2 "Resistors_SMD:R_0603_HandSoldering" V 4230 7100 50  0001 C CNN
F 3 "" H 4300 7100 50  0000 C CNN
	1    4300 7100
	1    0    0    -1  
$EndComp
Wire Wire Line
	6300 6600 6200 6600
Wire Wire Line
	6200 6600 6200 5800
Wire Wire Line
	6300 6700 6200 6700
Wire Wire Line
	6200 6700 6200 7350
$Comp
L GND #PWR018
U 1 1 5B5231F2
P 5700 7500
F 0 "#PWR018" H 5700 7250 50  0001 C CNN
F 1 "GND" H 5700 7350 50  0000 C CNN
F 2 "" H 5700 7500 50  0000 C CNN
F 3 "" H 5700 7500 50  0000 C CNN
	1    5700 7500
	1    0    0    -1  
$EndComp
$Comp
L +5V #PWR019
U 1 1 5B523234
P 5700 5650
F 0 "#PWR019" H 5700 5500 50  0001 C CNN
F 1 "+5V" H 5700 5790 50  0000 C CNN
F 2 "" H 5700 5650 50  0000 C CNN
F 3 "" H 5700 5650 50  0000 C CNN
	1    5700 5650
	1    0    0    -1  
$EndComp
Wire Wire Line
	5700 5650 5700 6000
Wire Wire Line
	5700 6300 5700 6700
Connection ~ 5700 6500
Wire Wire Line
	4200 6850 4500 6850
Wire Wire Line
	4800 6200 4800 6600
Connection ~ 4800 6400
Wire Wire Line
	5300 6400 5300 6950
Wire Wire Line
	5300 6950 5400 6950
Wire Wire Line
	4800 5900 4800 5800
Wire Wire Line
	4300 7250 4300 7350
Wire Wire Line
	4300 7350 6200 7350
Connection ~ 4800 7350
Wire Wire Line
	4300 6850 4300 6950
Connection ~ 4300 6850
Wire Wire Line
	4800 7350 4800 7000
Connection ~ 5700 7350
Wire Wire Line
	4800 6400 4900 6400
Wire Wire Line
	5200 6400 5300 6400
Wire Wire Line
	4800 5800 6200 5800
Connection ~ 5700 5800
Wire Wire Line
	3900 6850 3650 6850
Wire Wire Line
	3650 6850 3650 3800
Wire Wire Line
	6300 6500 5700 6500
Wire Wire Line
	3100 6600 3000 6600
Wire Wire Line
	3000 6600 3000 5800
Wire Wire Line
	3100 6700 3000 6700
Wire Wire Line
	3000 6700 3000 7350
Wire Wire Line
	3000 7350 1100 7350
Wire Wire Line
	2500 7100 2500 7500
Wire Wire Line
	3100 6500 2500 6500
Wire Wire Line
	2500 6300 2500 6700
Connection ~ 2500 6500
Wire Wire Line
	2500 5650 2500 6000
Wire Wire Line
	3000 5800 1600 5800
Wire Wire Line
	2200 6950 2100 6950
Wire Wire Line
	2100 6950 2100 6400
Wire Wire Line
	2100 6400 2000 6400
Connection ~ 2500 5800
$Comp
L R R2
U 1 1 5B527666
P 1100 7100
F 0 "R2" V 1180 7100 50  0000 C CNN
F 1 "100k" V 1100 7100 50  0000 C CNN
F 2 "Resistors_SMD:R_0603_HandSoldering" V 1030 7100 50  0001 C CNN
F 3 "" H 1100 7100 50  0000 C CNN
	1    1100 7100
	1    0    0    -1  
$EndComp
Wire Wire Line
	1600 7350 1600 7000
Wire Wire Line
	1100 7350 1100 7250
Connection ~ 1600 7350
Connection ~ 2500 7350
Wire Wire Line
	1600 5800 1600 5900
Wire Wire Line
	1600 6200 1600 6600
Wire Wire Line
	1600 6400 1700 6400
Connection ~ 1600 6400
Wire Wire Line
	1000 6850 1300 6850
Wire Wire Line
	1100 6850 1100 6950
Connection ~ 1100 6850
Wire Wire Line
	600  3700 600  6850
Wire Wire Line
	600  6850 700  6850
Wire Wire Line
	5700 7100 5700 7500
Wire Wire Line
	10700 1800 10700 2000
$Comp
L GND #PWR020
U 1 1 5B529460
P 10700 2000
F 0 "#PWR020" H 10700 1750 50  0001 C CNN
F 1 "GND" H 10700 1850 50  0000 C CNN
F 2 "" H 10700 2000 50  0000 C CNN
F 3 "" H 10700 2000 50  0000 C CNN
	1    10700 2000
	1    0    0    -1  
$EndComp
Wire Wire Line
	10300 1200 10300 2200
$Comp
L CP C1
U 1 1 5B529DC6
P 4100 1350
F 0 "C1" H 4125 1450 50  0000 L CNN
F 1 "47uF 35V" H 4125 1250 50  0000 L CNN
F 2 "Capacitors_Tantalum_SMD:TantalC_SizeD_EIA-7343_Reflow" H 4138 1200 50  0001 C CNN
F 3 "" H 4100 1350 50  0000 C CNN
	1    4100 1350
	1    0    0    -1  
$EndComp
Wire Wire Line
	4100 1500 4100 1600
$Comp
L GND #PWR021
U 1 1 5B529F37
P 4100 1600
F 0 "#PWR021" H 4100 1350 50  0001 C CNN
F 1 "GND" H 4100 1450 50  0000 C CNN
F 2 "" H 4100 1600 50  0000 C CNN
F 3 "" H 4100 1600 50  0000 C CNN
	1    4100 1600
	1    0    0    -1  
$EndComp
Wire Wire Line
	4100 1200 4100 1000
Wire Wire Line
	4100 1000 3500 1000
Connection ~ 3500 1000
$Comp
L CP C2
U 1 1 5B52A3EB
P 8700 1250
F 0 "C2" H 8725 1350 50  0000 L CNN
F 1 "220uF 16V" H 8725 1150 50  0000 L CNN
F 2 "Capacitors_Tantalum_SMD:TantalC_SizeD_EIA-7343_Reflow" H 8738 1100 50  0001 C CNN
F 3 "" H 8700 1250 50  0000 C CNN
	1    8700 1250
	1    0    0    -1  
$EndComp
Connection ~ 8700 1000
$Comp
L GND #PWR022
U 1 1 5B52A548
P 8700 1500
F 0 "#PWR022" H 8700 1250 50  0001 C CNN
F 1 "GND" H 8700 1350 50  0000 C CNN
F 2 "" H 8700 1500 50  0000 C CNN
F 3 "" H 8700 1500 50  0000 C CNN
	1    8700 1500
	1    0    0    -1  
$EndComp
Wire Wire Line
	8700 1400 8700 1500
Wire Wire Line
	5300 3700 5300 4100
Wire Wire Line
	5400 4600 5400 4800
Connection ~ 5600 4800
Wire Wire Line
	5900 4600 5900 5100
Wire Wire Line
	6000 3800 6000 4100
Wire Wire Line
	3800 2500 3800 3300
Wire Wire Line
	3800 3300 5500 3300
Wire Wire Line
	5500 3300 5500 4100
Wire Wire Line
	5800 3700 5800 4100
NoConn ~ 5400 4100
NoConn ~ 5900 4100
Text Notes 7200 5600 0    118  ~ 0
REVISION HISTORY
Text Notes 7250 5750 0    60   ~ 0
REV A.  Initial Design
Text Notes 7250 6000 0    60   ~ 0
REV. B  5 VDC Power Supply circuit removed.  3.3 V to 5 V interface\ncircuit added for Servo Signals.
Text Notes 7250 6250 0    60   ~ 0
REV. C  Connectors P2 and P3 moved 0.020 away from board edge\non PCB design to allow panelized assembly.
$Comp
L L_Small L1
U 1 1 5BDB6204
P 5500 5050
F 0 "L1" H 5530 5090 50  0000 L CNN
F 1 "22uH" H 5530 5010 50  0000 L CNN
F 2 "Inductors_NEOSID:Neosid_Inductor_SM-NE30_SMD1210" H 5500 5050 50  0001 C CNN
F 3 "" H 5500 5050 50  0000 C CNN
	1    5500 5050
	1    0    0    -1  
$EndComp
Wire Wire Line
	5500 4600 5500 4950
Wire Wire Line
	5500 5150 5500 5400
Wire Wire Line
	5700 4600 5700 4800
Connection ~ 5900 4800
Text Notes 7250 6500 0    60   ~ 0
REV D.  Added L1 22uH inductor to fan shroud circuit to reduce signal\nnoise and improve conducted EMC performance.
$EndSCHEMATC
