G04 #@! TF.FileFunction,Paste,Top*
%FSLAX46Y46*%
G04 Gerber Fmt 4.6, Leading zero omitted, Abs format (unit mm)*
G04 Created by KiCad (PCBNEW 4.0.5+dfsg1-4) date Thu Nov  1 13:58:00 2018*
%MOMM*%
%LPD*%
G01*
G04 APERTURE LIST*
%ADD10C,0.100000*%
%ADD11R,0.800100X0.800100*%
%ADD12R,0.900000X1.200000*%
%ADD13R,2.430000X2.370000*%
%ADD14R,1.899920X1.000760*%
G04 APERTURE END LIST*
D10*
D11*
X77550000Y-71500760D03*
X79450000Y-71500760D03*
X78500000Y-69501780D03*
X81550000Y-71500760D03*
X83450000Y-71500760D03*
X82500000Y-69501780D03*
X86550000Y-71500760D03*
X88450000Y-71500760D03*
X87500000Y-69501780D03*
X90550000Y-71500760D03*
X92450000Y-71500760D03*
X91500000Y-69501780D03*
D12*
X77500000Y-74400000D03*
X77500000Y-76600000D03*
X80000000Y-74400000D03*
X80000000Y-76600000D03*
X77500000Y-63900000D03*
X77500000Y-66100000D03*
X80000000Y-66100000D03*
X80000000Y-63900000D03*
X82500000Y-63900000D03*
X82500000Y-66100000D03*
X86500000Y-74400000D03*
X86500000Y-76600000D03*
X89000000Y-74400000D03*
X89000000Y-76600000D03*
X86500000Y-63900000D03*
X86500000Y-66100000D03*
X89000000Y-66100000D03*
X89000000Y-63900000D03*
X91500000Y-63900000D03*
X91500000Y-66100000D03*
D13*
X64000000Y-102120000D03*
X64000000Y-95880000D03*
X106500000Y-95380000D03*
X106500000Y-101620000D03*
D14*
X64000000Y-86399800D03*
X64000000Y-89600200D03*
M02*
