G04 #@! TF.FileFunction,Legend,Top*
%FSLAX46Y46*%
G04 Gerber Fmt 4.6, Leading zero omitted, Abs format (unit mm)*
G04 Created by KiCad (PCBNEW 4.0.5+dfsg1-4) date Thu Nov  1 13:58:00 2018*
%MOMM*%
%LPD*%
G01*
G04 APERTURE LIST*
%ADD10C,0.100000*%
%ADD11C,0.300000*%
%ADD12C,0.150000*%
G04 APERTURE END LIST*
D10*
D11*
X80107143Y-54250000D02*
X79964286Y-54178571D01*
X79750000Y-54178571D01*
X79535715Y-54250000D01*
X79392857Y-54392857D01*
X79321429Y-54535714D01*
X79250000Y-54821429D01*
X79250000Y-55035714D01*
X79321429Y-55321429D01*
X79392857Y-55464286D01*
X79535715Y-55607143D01*
X79750000Y-55678571D01*
X79892857Y-55678571D01*
X80107143Y-55607143D01*
X80178572Y-55535714D01*
X80178572Y-55035714D01*
X79892857Y-55035714D01*
X80821429Y-55678571D02*
X80821429Y-54178571D01*
X81678572Y-55678571D01*
X81678572Y-54178571D01*
X82392858Y-54178571D02*
X82392858Y-55392857D01*
X82464286Y-55535714D01*
X82535715Y-55607143D01*
X82678572Y-55678571D01*
X82964286Y-55678571D01*
X83107144Y-55607143D01*
X83178572Y-55535714D01*
X83250001Y-55392857D01*
X83250001Y-54178571D01*
X85892858Y-54250000D02*
X85750001Y-54178571D01*
X85535715Y-54178571D01*
X85321430Y-54250000D01*
X85178572Y-54392857D01*
X85107144Y-54535714D01*
X85035715Y-54821429D01*
X85035715Y-55035714D01*
X85107144Y-55321429D01*
X85178572Y-55464286D01*
X85321430Y-55607143D01*
X85535715Y-55678571D01*
X85678572Y-55678571D01*
X85892858Y-55607143D01*
X85964287Y-55535714D01*
X85964287Y-55035714D01*
X85678572Y-55035714D01*
X86607144Y-55678571D02*
X86607144Y-54178571D01*
X87178572Y-54178571D01*
X87321430Y-54250000D01*
X87392858Y-54321429D01*
X87464287Y-54464286D01*
X87464287Y-54678571D01*
X87392858Y-54821429D01*
X87321430Y-54892857D01*
X87178572Y-54964286D01*
X86607144Y-54964286D01*
X88821430Y-55678571D02*
X88107144Y-55678571D01*
X88107144Y-54178571D01*
X89178573Y-54678571D02*
X89535716Y-55678571D01*
X89892858Y-54678571D01*
X90321430Y-54178571D02*
X91250001Y-54178571D01*
X90750001Y-54750000D01*
X90964287Y-54750000D01*
X91107144Y-54821429D01*
X91178573Y-54892857D01*
X91250001Y-55035714D01*
X91250001Y-55392857D01*
X91178573Y-55535714D01*
X91107144Y-55607143D01*
X90964287Y-55678571D01*
X90535715Y-55678571D01*
X90392858Y-55607143D01*
X90321430Y-55535714D01*
X81857144Y-41760714D02*
X81714286Y-41689286D01*
X81428572Y-41689286D01*
X81285715Y-41760714D01*
X81142858Y-41903571D01*
X81071429Y-42046429D01*
X81071429Y-42332143D01*
X81142858Y-42475000D01*
X81285715Y-42617857D01*
X81428572Y-42689286D01*
X81714286Y-42689286D01*
X81857144Y-42617857D01*
X81571429Y-41189286D02*
X81214286Y-41260714D01*
X80857144Y-41475000D01*
X80642858Y-41832143D01*
X80571429Y-42189286D01*
X80642858Y-42546429D01*
X80857144Y-42903571D01*
X81214286Y-43117857D01*
X81571429Y-43189286D01*
X81928572Y-43117857D01*
X82285715Y-42903571D01*
X82500001Y-42546429D01*
X82571429Y-42189286D01*
X82500001Y-41832143D01*
X82285715Y-41475000D01*
X81928572Y-41260714D01*
X81571429Y-41189286D01*
X84285715Y-41546429D02*
X84357144Y-41475000D01*
X84500001Y-41403571D01*
X84857144Y-41403571D01*
X85000001Y-41475000D01*
X85071430Y-41546429D01*
X85142858Y-41689286D01*
X85142858Y-41832143D01*
X85071430Y-42046429D01*
X84214287Y-42903571D01*
X85142858Y-42903571D01*
X86071429Y-41403571D02*
X86214286Y-41403571D01*
X86357143Y-41475000D01*
X86428572Y-41546429D01*
X86500001Y-41689286D01*
X86571429Y-41975000D01*
X86571429Y-42332143D01*
X86500001Y-42617857D01*
X86428572Y-42760714D01*
X86357143Y-42832143D01*
X86214286Y-42903571D01*
X86071429Y-42903571D01*
X85928572Y-42832143D01*
X85857143Y-42760714D01*
X85785715Y-42617857D01*
X85714286Y-42332143D01*
X85714286Y-41975000D01*
X85785715Y-41689286D01*
X85857143Y-41546429D01*
X85928572Y-41475000D01*
X86071429Y-41403571D01*
X88000000Y-42903571D02*
X87142857Y-42903571D01*
X87571429Y-42903571D02*
X87571429Y-41403571D01*
X87428572Y-41617857D01*
X87285714Y-41760714D01*
X87142857Y-41832143D01*
X88857143Y-42046429D02*
X88714285Y-41975000D01*
X88642857Y-41903571D01*
X88571428Y-41760714D01*
X88571428Y-41689286D01*
X88642857Y-41546429D01*
X88714285Y-41475000D01*
X88857143Y-41403571D01*
X89142857Y-41403571D01*
X89285714Y-41475000D01*
X89357143Y-41546429D01*
X89428571Y-41689286D01*
X89428571Y-41760714D01*
X89357143Y-41903571D01*
X89285714Y-41975000D01*
X89142857Y-42046429D01*
X88857143Y-42046429D01*
X88714285Y-42117857D01*
X88642857Y-42189286D01*
X88571428Y-42332143D01*
X88571428Y-42617857D01*
X88642857Y-42760714D01*
X88714285Y-42832143D01*
X88857143Y-42903571D01*
X89142857Y-42903571D01*
X89285714Y-42832143D01*
X89357143Y-42760714D01*
X89428571Y-42617857D01*
X89428571Y-42332143D01*
X89357143Y-42189286D01*
X89285714Y-42117857D01*
X89142857Y-42046429D01*
X77535714Y-45025000D02*
X78250000Y-45025000D01*
X77392857Y-45453571D02*
X77892857Y-43953571D01*
X78392857Y-45453571D01*
X79107143Y-45453571D02*
X78964285Y-45382143D01*
X78892857Y-45239286D01*
X78892857Y-43953571D01*
X80249999Y-45382143D02*
X80107142Y-45453571D01*
X79821428Y-45453571D01*
X79678571Y-45382143D01*
X79607142Y-45239286D01*
X79607142Y-44667857D01*
X79678571Y-44525000D01*
X79821428Y-44453571D01*
X80107142Y-44453571D01*
X80249999Y-44525000D01*
X80321428Y-44667857D01*
X80321428Y-44810714D01*
X79607142Y-44953571D01*
X80964285Y-44453571D02*
X80964285Y-45953571D01*
X80964285Y-44525000D02*
X81107142Y-44453571D01*
X81392856Y-44453571D01*
X81535713Y-44525000D01*
X81607142Y-44596429D01*
X81678571Y-44739286D01*
X81678571Y-45167857D01*
X81607142Y-45310714D01*
X81535713Y-45382143D01*
X81392856Y-45453571D01*
X81107142Y-45453571D01*
X80964285Y-45382143D01*
X82321428Y-45453571D02*
X82321428Y-43953571D01*
X82964285Y-45453571D02*
X82964285Y-44667857D01*
X82892856Y-44525000D01*
X82749999Y-44453571D01*
X82535714Y-44453571D01*
X82392856Y-44525000D01*
X82321428Y-44596429D01*
X85107142Y-43953571D02*
X85392856Y-43953571D01*
X85535714Y-44025000D01*
X85678571Y-44167857D01*
X85749999Y-44453571D01*
X85749999Y-44953571D01*
X85678571Y-45239286D01*
X85535714Y-45382143D01*
X85392856Y-45453571D01*
X85107142Y-45453571D01*
X84964285Y-45382143D01*
X84821428Y-45239286D01*
X84749999Y-44953571D01*
X84749999Y-44453571D01*
X84821428Y-44167857D01*
X84964285Y-44025000D01*
X85107142Y-43953571D01*
X86392857Y-45453571D02*
X86392857Y-43953571D01*
X86392857Y-44525000D02*
X86535714Y-44453571D01*
X86821428Y-44453571D01*
X86964285Y-44525000D01*
X87035714Y-44596429D01*
X87107143Y-44739286D01*
X87107143Y-45167857D01*
X87035714Y-45310714D01*
X86964285Y-45382143D01*
X86821428Y-45453571D01*
X86535714Y-45453571D01*
X86392857Y-45382143D01*
X87750000Y-44453571D02*
X87750000Y-45739286D01*
X87678571Y-45882143D01*
X87535714Y-45953571D01*
X87464286Y-45953571D01*
X87750000Y-43953571D02*
X87678571Y-44025000D01*
X87750000Y-44096429D01*
X87821428Y-44025000D01*
X87750000Y-43953571D01*
X87750000Y-44096429D01*
X89035714Y-45382143D02*
X88892857Y-45453571D01*
X88607143Y-45453571D01*
X88464286Y-45382143D01*
X88392857Y-45239286D01*
X88392857Y-44667857D01*
X88464286Y-44525000D01*
X88607143Y-44453571D01*
X88892857Y-44453571D01*
X89035714Y-44525000D01*
X89107143Y-44667857D01*
X89107143Y-44810714D01*
X88392857Y-44953571D01*
X90392857Y-45382143D02*
X90250000Y-45453571D01*
X89964286Y-45453571D01*
X89821428Y-45382143D01*
X89750000Y-45310714D01*
X89678571Y-45167857D01*
X89678571Y-44739286D01*
X89750000Y-44596429D01*
X89821428Y-44525000D01*
X89964286Y-44453571D01*
X90250000Y-44453571D01*
X90392857Y-44525000D01*
X90821428Y-44453571D02*
X91392857Y-44453571D01*
X91035714Y-43953571D02*
X91035714Y-45239286D01*
X91107142Y-45382143D01*
X91250000Y-45453571D01*
X91392857Y-45453571D01*
X91821428Y-45382143D02*
X91964285Y-45453571D01*
X92250000Y-45453571D01*
X92392857Y-45382143D01*
X92464285Y-45239286D01*
X92464285Y-45167857D01*
X92392857Y-45025000D01*
X92250000Y-44953571D01*
X92035714Y-44953571D01*
X91892857Y-44882143D01*
X91821428Y-44739286D01*
X91821428Y-44667857D01*
X91892857Y-44525000D01*
X92035714Y-44453571D01*
X92250000Y-44453571D01*
X92392857Y-44525000D01*
X74464287Y-86103571D02*
X75321430Y-86103571D01*
X74892859Y-87603571D02*
X74892859Y-86103571D01*
X75750001Y-87175000D02*
X76464287Y-87175000D01*
X75607144Y-87603571D02*
X76107144Y-86103571D01*
X76607144Y-87603571D01*
X76964287Y-86103571D02*
X77964287Y-86103571D01*
X76964287Y-87603571D01*
X77964287Y-87603571D01*
X78392858Y-86103571D02*
X79392858Y-86103571D01*
X78750001Y-87603571D01*
X81107143Y-87603571D02*
X81107143Y-86103571D01*
X81464286Y-86103571D01*
X81678571Y-86175000D01*
X81821429Y-86317857D01*
X81892857Y-86460714D01*
X81964286Y-86746429D01*
X81964286Y-86960714D01*
X81892857Y-87246429D01*
X81821429Y-87389286D01*
X81678571Y-87532143D01*
X81464286Y-87603571D01*
X81107143Y-87603571D01*
X83250000Y-86603571D02*
X83250000Y-87603571D01*
X82607143Y-86603571D02*
X82607143Y-87389286D01*
X82678571Y-87532143D01*
X82821429Y-87603571D01*
X83035714Y-87603571D01*
X83178571Y-87532143D01*
X83250000Y-87460714D01*
X84607143Y-87603571D02*
X84607143Y-86817857D01*
X84535714Y-86675000D01*
X84392857Y-86603571D01*
X84107143Y-86603571D01*
X83964286Y-86675000D01*
X84607143Y-87532143D02*
X84464286Y-87603571D01*
X84107143Y-87603571D01*
X83964286Y-87532143D01*
X83892857Y-87389286D01*
X83892857Y-87246429D01*
X83964286Y-87103571D01*
X84107143Y-87032143D01*
X84464286Y-87032143D01*
X84607143Y-86960714D01*
X85535715Y-87603571D02*
X85392857Y-87532143D01*
X85321429Y-87389286D01*
X85321429Y-86103571D01*
X87250000Y-86817857D02*
X87750000Y-86817857D01*
X87964286Y-87603571D02*
X87250000Y-87603571D01*
X87250000Y-86103571D01*
X87964286Y-86103571D01*
X88464286Y-87603571D02*
X89250000Y-86603571D01*
X88464286Y-86603571D02*
X89250000Y-87603571D01*
X89607143Y-86603571D02*
X90178572Y-86603571D01*
X89821429Y-86103571D02*
X89821429Y-87389286D01*
X89892857Y-87532143D01*
X90035715Y-87603571D01*
X90178572Y-87603571D01*
X90678572Y-87603571D02*
X90678572Y-86603571D01*
X90678572Y-86889286D02*
X90750000Y-86746429D01*
X90821429Y-86675000D01*
X90964286Y-86603571D01*
X91107143Y-86603571D01*
X92250000Y-86603571D02*
X92250000Y-87603571D01*
X91607143Y-86603571D02*
X91607143Y-87389286D01*
X91678571Y-87532143D01*
X91821429Y-87603571D01*
X92035714Y-87603571D01*
X92178571Y-87532143D01*
X92250000Y-87460714D01*
X93607143Y-87603571D02*
X93607143Y-86103571D01*
X93607143Y-87532143D02*
X93464286Y-87603571D01*
X93178572Y-87603571D01*
X93035714Y-87532143D01*
X92964286Y-87460714D01*
X92892857Y-87317857D01*
X92892857Y-86889286D01*
X92964286Y-86746429D01*
X93035714Y-86675000D01*
X93178572Y-86603571D01*
X93464286Y-86603571D01*
X93607143Y-86675000D01*
X94892857Y-87532143D02*
X94750000Y-87603571D01*
X94464286Y-87603571D01*
X94321429Y-87532143D01*
X94250000Y-87389286D01*
X94250000Y-86817857D01*
X94321429Y-86675000D01*
X94464286Y-86603571D01*
X94750000Y-86603571D01*
X94892857Y-86675000D01*
X94964286Y-86817857D01*
X94964286Y-86960714D01*
X94250000Y-87103571D01*
X95607143Y-87603571D02*
X95607143Y-86603571D01*
X95607143Y-86889286D02*
X95678571Y-86746429D01*
X95750000Y-86675000D01*
X95892857Y-86603571D01*
X96035714Y-86603571D01*
X83071429Y-89367857D02*
X83285715Y-89439286D01*
X83357143Y-89510714D01*
X83428572Y-89653571D01*
X83428572Y-89867857D01*
X83357143Y-90010714D01*
X83285715Y-90082143D01*
X83142857Y-90153571D01*
X82571429Y-90153571D01*
X82571429Y-88653571D01*
X83071429Y-88653571D01*
X83214286Y-88725000D01*
X83285715Y-88796429D01*
X83357143Y-88939286D01*
X83357143Y-89082143D01*
X83285715Y-89225000D01*
X83214286Y-89296429D01*
X83071429Y-89367857D01*
X82571429Y-89367857D01*
X84714286Y-90153571D02*
X84714286Y-89367857D01*
X84642857Y-89225000D01*
X84500000Y-89153571D01*
X84214286Y-89153571D01*
X84071429Y-89225000D01*
X84714286Y-90082143D02*
X84571429Y-90153571D01*
X84214286Y-90153571D01*
X84071429Y-90082143D01*
X84000000Y-89939286D01*
X84000000Y-89796429D01*
X84071429Y-89653571D01*
X84214286Y-89582143D01*
X84571429Y-89582143D01*
X84714286Y-89510714D01*
X85357143Y-90082143D02*
X85500000Y-90153571D01*
X85785715Y-90153571D01*
X85928572Y-90082143D01*
X86000000Y-89939286D01*
X86000000Y-89867857D01*
X85928572Y-89725000D01*
X85785715Y-89653571D01*
X85571429Y-89653571D01*
X85428572Y-89582143D01*
X85357143Y-89439286D01*
X85357143Y-89367857D01*
X85428572Y-89225000D01*
X85571429Y-89153571D01*
X85785715Y-89153571D01*
X85928572Y-89225000D01*
X86642858Y-90153571D02*
X86642858Y-89153571D01*
X86642858Y-88653571D02*
X86571429Y-88725000D01*
X86642858Y-88796429D01*
X86714286Y-88725000D01*
X86642858Y-88653571D01*
X86642858Y-88796429D01*
X88000001Y-90082143D02*
X87857144Y-90153571D01*
X87571430Y-90153571D01*
X87428572Y-90082143D01*
X87357144Y-90010714D01*
X87285715Y-89867857D01*
X87285715Y-89439286D01*
X87357144Y-89296429D01*
X87428572Y-89225000D01*
X87571430Y-89153571D01*
X87857144Y-89153571D01*
X88000001Y-89225000D01*
X76821429Y-92703571D02*
X76821429Y-91203571D01*
X77535715Y-91703571D02*
X77535715Y-92703571D01*
X77535715Y-91846429D02*
X77607143Y-91775000D01*
X77750001Y-91703571D01*
X77964286Y-91703571D01*
X78107143Y-91775000D01*
X78178572Y-91917857D01*
X78178572Y-92703571D01*
X78678572Y-91703571D02*
X79250001Y-91703571D01*
X78892858Y-91203571D02*
X78892858Y-92489286D01*
X78964286Y-92632143D01*
X79107144Y-92703571D01*
X79250001Y-92703571D01*
X80321429Y-92632143D02*
X80178572Y-92703571D01*
X79892858Y-92703571D01*
X79750001Y-92632143D01*
X79678572Y-92489286D01*
X79678572Y-91917857D01*
X79750001Y-91775000D01*
X79892858Y-91703571D01*
X80178572Y-91703571D01*
X80321429Y-91775000D01*
X80392858Y-91917857D01*
X80392858Y-92060714D01*
X79678572Y-92203571D01*
X81035715Y-92703571D02*
X81035715Y-91703571D01*
X81035715Y-91989286D02*
X81107143Y-91846429D01*
X81178572Y-91775000D01*
X81321429Y-91703571D01*
X81464286Y-91703571D01*
X81750000Y-91703571D02*
X82321429Y-91703571D01*
X81964286Y-92703571D02*
X81964286Y-91417857D01*
X82035714Y-91275000D01*
X82178572Y-91203571D01*
X82321429Y-91203571D01*
X83464286Y-92703571D02*
X83464286Y-91917857D01*
X83392857Y-91775000D01*
X83250000Y-91703571D01*
X82964286Y-91703571D01*
X82821429Y-91775000D01*
X83464286Y-92632143D02*
X83321429Y-92703571D01*
X82964286Y-92703571D01*
X82821429Y-92632143D01*
X82750000Y-92489286D01*
X82750000Y-92346429D01*
X82821429Y-92203571D01*
X82964286Y-92132143D01*
X83321429Y-92132143D01*
X83464286Y-92060714D01*
X84821429Y-92632143D02*
X84678572Y-92703571D01*
X84392858Y-92703571D01*
X84250000Y-92632143D01*
X84178572Y-92560714D01*
X84107143Y-92417857D01*
X84107143Y-91989286D01*
X84178572Y-91846429D01*
X84250000Y-91775000D01*
X84392858Y-91703571D01*
X84678572Y-91703571D01*
X84821429Y-91775000D01*
X86035714Y-92632143D02*
X85892857Y-92703571D01*
X85607143Y-92703571D01*
X85464286Y-92632143D01*
X85392857Y-92489286D01*
X85392857Y-91917857D01*
X85464286Y-91775000D01*
X85607143Y-91703571D01*
X85892857Y-91703571D01*
X86035714Y-91775000D01*
X86107143Y-91917857D01*
X86107143Y-92060714D01*
X85392857Y-92203571D01*
X88392857Y-91917857D02*
X88607143Y-91989286D01*
X88678571Y-92060714D01*
X88750000Y-92203571D01*
X88750000Y-92417857D01*
X88678571Y-92560714D01*
X88607143Y-92632143D01*
X88464285Y-92703571D01*
X87892857Y-92703571D01*
X87892857Y-91203571D01*
X88392857Y-91203571D01*
X88535714Y-91275000D01*
X88607143Y-91346429D01*
X88678571Y-91489286D01*
X88678571Y-91632143D01*
X88607143Y-91775000D01*
X88535714Y-91846429D01*
X88392857Y-91917857D01*
X87892857Y-91917857D01*
X89607143Y-92703571D02*
X89464285Y-92632143D01*
X89392857Y-92560714D01*
X89321428Y-92417857D01*
X89321428Y-91989286D01*
X89392857Y-91846429D01*
X89464285Y-91775000D01*
X89607143Y-91703571D01*
X89821428Y-91703571D01*
X89964285Y-91775000D01*
X90035714Y-91846429D01*
X90107143Y-91989286D01*
X90107143Y-92417857D01*
X90035714Y-92560714D01*
X89964285Y-92632143D01*
X89821428Y-92703571D01*
X89607143Y-92703571D01*
X91392857Y-92703571D02*
X91392857Y-91917857D01*
X91321428Y-91775000D01*
X91178571Y-91703571D01*
X90892857Y-91703571D01*
X90750000Y-91775000D01*
X91392857Y-92632143D02*
X91250000Y-92703571D01*
X90892857Y-92703571D01*
X90750000Y-92632143D01*
X90678571Y-92489286D01*
X90678571Y-92346429D01*
X90750000Y-92203571D01*
X90892857Y-92132143D01*
X91250000Y-92132143D01*
X91392857Y-92060714D01*
X92107143Y-92703571D02*
X92107143Y-91703571D01*
X92107143Y-91989286D02*
X92178571Y-91846429D01*
X92250000Y-91775000D01*
X92392857Y-91703571D01*
X92535714Y-91703571D01*
X93678571Y-92703571D02*
X93678571Y-91203571D01*
X93678571Y-92632143D02*
X93535714Y-92703571D01*
X93250000Y-92703571D01*
X93107142Y-92632143D01*
X93035714Y-92560714D01*
X92964285Y-92417857D01*
X92964285Y-91989286D01*
X93035714Y-91846429D01*
X93107142Y-91775000D01*
X93250000Y-91703571D01*
X93535714Y-91703571D01*
X93678571Y-91775000D01*
X82714286Y-95253571D02*
X82214286Y-94539286D01*
X81857143Y-95253571D02*
X81857143Y-93753571D01*
X82428571Y-93753571D01*
X82571429Y-93825000D01*
X82642857Y-93896429D01*
X82714286Y-94039286D01*
X82714286Y-94253571D01*
X82642857Y-94396429D01*
X82571429Y-94467857D01*
X82428571Y-94539286D01*
X81857143Y-94539286D01*
X83357143Y-94467857D02*
X83857143Y-94467857D01*
X84071429Y-95253571D02*
X83357143Y-95253571D01*
X83357143Y-93753571D01*
X84071429Y-93753571D01*
X84500000Y-93753571D02*
X85000000Y-95253571D01*
X85500000Y-93753571D01*
X86000000Y-95110714D02*
X86071428Y-95182143D01*
X86000000Y-95253571D01*
X85928571Y-95182143D01*
X86000000Y-95110714D01*
X86000000Y-95253571D01*
X87857143Y-95253571D02*
X87857143Y-93753571D01*
X88214286Y-93753571D01*
X88428571Y-93825000D01*
X88571429Y-93967857D01*
X88642857Y-94110714D01*
X88714286Y-94396429D01*
X88714286Y-94610714D01*
X88642857Y-94896429D01*
X88571429Y-95039286D01*
X88428571Y-95182143D01*
X88214286Y-95253571D01*
X87857143Y-95253571D01*
D12*
X65024000Y-42926000D02*
X68326000Y-42926000D01*
X68326000Y-42926000D02*
X68326000Y-46990000D01*
X68326000Y-46990000D02*
X65024000Y-46990000D01*
X61214000Y-41910000D02*
X65024000Y-41910000D01*
X65024000Y-41910000D02*
X65024000Y-48006000D01*
X65024000Y-48006000D02*
X61214000Y-48006000D01*
X73914000Y-41402000D02*
X73914000Y-40894000D01*
X73914000Y-40894000D02*
X61214000Y-40894000D01*
X61214000Y-40894000D02*
X61214000Y-49022000D01*
X61214000Y-49022000D02*
X73914000Y-49022000D01*
X73914000Y-49022000D02*
X73914000Y-48514000D01*
X104902000Y-46990000D02*
X101600000Y-46990000D01*
X101600000Y-46990000D02*
X101600000Y-42926000D01*
X101600000Y-42926000D02*
X104902000Y-42926000D01*
X108712000Y-48006000D02*
X104902000Y-48006000D01*
X104902000Y-48006000D02*
X104902000Y-41910000D01*
X104902000Y-41910000D02*
X108712000Y-41910000D01*
X96012000Y-48514000D02*
X96012000Y-49022000D01*
X96012000Y-49022000D02*
X108712000Y-49022000D01*
X108712000Y-49022000D02*
X108712000Y-40894000D01*
X108712000Y-40894000D02*
X96012000Y-40894000D01*
X96012000Y-40894000D02*
X96012000Y-41402000D01*
X60500000Y-85000000D02*
X60500000Y-50000000D01*
X73850000Y-85000000D02*
X60500000Y-85000000D01*
X73850000Y-50000000D02*
X73850000Y-85000000D01*
X60500000Y-50000000D02*
X73850000Y-50000000D01*
X105730000Y-91810000D02*
X108270000Y-91810000D01*
X105730000Y-89270000D02*
X105730000Y-91810000D01*
X105450000Y-86450000D02*
X108550000Y-86450000D01*
X105450000Y-88000000D02*
X105450000Y-86450000D01*
X108270000Y-89270000D02*
X105730000Y-89270000D01*
X108550000Y-86450000D02*
X108550000Y-88000000D01*
X108270000Y-89270000D02*
X108270000Y-91810000D01*
X105800000Y-108900000D02*
X64200000Y-108900000D01*
X105800000Y-116650000D02*
X64200000Y-116650000D01*
X64200000Y-116650000D02*
X64200000Y-108900000D01*
X105800000Y-116650000D02*
X105800000Y-108900000D01*
X109500000Y-50000000D02*
X109500000Y-85000000D01*
X96150000Y-50000000D02*
X109500000Y-50000000D01*
X96150000Y-85000000D02*
X96150000Y-50000000D01*
X109500000Y-85000000D02*
X96150000Y-85000000D01*
X79999820Y-69849760D02*
X79999820Y-70550800D01*
X79799160Y-69849760D02*
X79999820Y-69849760D01*
X77000180Y-69849760D02*
X77249100Y-69849760D01*
X77000180Y-70550800D02*
X77000180Y-69849760D01*
X79799160Y-69849760D02*
X79750900Y-69849760D01*
X83999820Y-69849760D02*
X83999820Y-70550800D01*
X83799160Y-69849760D02*
X83999820Y-69849760D01*
X81000180Y-69849760D02*
X81249100Y-69849760D01*
X81000180Y-70550800D02*
X81000180Y-69849760D01*
X83799160Y-69849760D02*
X83750900Y-69849760D01*
X88999820Y-69849760D02*
X88999820Y-70550800D01*
X88799160Y-69849760D02*
X88999820Y-69849760D01*
X86000180Y-69849760D02*
X86249100Y-69849760D01*
X86000180Y-70550800D02*
X86000180Y-69849760D01*
X88799160Y-69849760D02*
X88750900Y-69849760D01*
X92999820Y-69849760D02*
X92999820Y-70550800D01*
X92799160Y-69849760D02*
X92999820Y-69849760D01*
X90000180Y-69849760D02*
X90249100Y-69849760D01*
X90000180Y-70550800D02*
X90000180Y-69849760D01*
X92799160Y-69849760D02*
X92750900Y-69849760D01*
X78175000Y-75000000D02*
X78175000Y-76000000D01*
X76825000Y-76000000D02*
X76825000Y-75000000D01*
X80675000Y-75000000D02*
X80675000Y-76000000D01*
X79325000Y-76000000D02*
X79325000Y-75000000D01*
X78175000Y-64500000D02*
X78175000Y-65500000D01*
X76825000Y-65500000D02*
X76825000Y-64500000D01*
X79325000Y-65500000D02*
X79325000Y-64500000D01*
X80675000Y-64500000D02*
X80675000Y-65500000D01*
X83175000Y-64500000D02*
X83175000Y-65500000D01*
X81825000Y-65500000D02*
X81825000Y-64500000D01*
X87175000Y-75000000D02*
X87175000Y-76000000D01*
X85825000Y-76000000D02*
X85825000Y-75000000D01*
X89675000Y-75000000D02*
X89675000Y-76000000D01*
X88325000Y-76000000D02*
X88325000Y-75000000D01*
X87175000Y-64500000D02*
X87175000Y-65500000D01*
X85825000Y-65500000D02*
X85825000Y-64500000D01*
X88325000Y-65500000D02*
X88325000Y-64500000D01*
X89675000Y-64500000D02*
X89675000Y-65500000D01*
X92175000Y-64500000D02*
X92175000Y-65500000D01*
X90825000Y-65500000D02*
X90825000Y-64500000D01*
X66200000Y-102800000D02*
X66200000Y-94700000D01*
X61800000Y-94800000D02*
X61800000Y-102800000D01*
X104300000Y-94700000D02*
X104300000Y-102800000D01*
X108700000Y-102700000D02*
X108700000Y-94700000D01*
X62699520Y-87499620D02*
X62699520Y-88500380D01*
X65300480Y-87499620D02*
X65300480Y-88500380D01*
X75659905Y-42910381D02*
X75659905Y-41910381D01*
X76040858Y-41910381D01*
X76136096Y-41958000D01*
X76183715Y-42005619D01*
X76231334Y-42100857D01*
X76231334Y-42243714D01*
X76183715Y-42338952D01*
X76136096Y-42386571D01*
X76040858Y-42434190D01*
X75659905Y-42434190D01*
X76612286Y-42005619D02*
X76659905Y-41958000D01*
X76755143Y-41910381D01*
X76993239Y-41910381D01*
X77088477Y-41958000D01*
X77136096Y-42005619D01*
X77183715Y-42100857D01*
X77183715Y-42196095D01*
X77136096Y-42338952D01*
X76564667Y-42910381D01*
X77183715Y-42910381D01*
X93039905Y-42910381D02*
X93039905Y-41910381D01*
X93420858Y-41910381D01*
X93516096Y-41958000D01*
X93563715Y-42005619D01*
X93611334Y-42100857D01*
X93611334Y-42243714D01*
X93563715Y-42338952D01*
X93516096Y-42386571D01*
X93420858Y-42434190D01*
X93039905Y-42434190D01*
X93944667Y-41910381D02*
X94563715Y-41910381D01*
X94230381Y-42291333D01*
X94373239Y-42291333D01*
X94468477Y-42338952D01*
X94516096Y-42386571D01*
X94563715Y-42481810D01*
X94563715Y-42719905D01*
X94516096Y-42815143D01*
X94468477Y-42862762D01*
X94373239Y-42910381D01*
X94087524Y-42910381D01*
X93992286Y-42862762D01*
X93944667Y-42815143D01*
X69761905Y-86702381D02*
X69761905Y-85702381D01*
X70142858Y-85702381D01*
X70238096Y-85750000D01*
X70285715Y-85797619D01*
X70333334Y-85892857D01*
X70333334Y-86035714D01*
X70285715Y-86130952D01*
X70238096Y-86178571D01*
X70142858Y-86226190D01*
X69761905Y-86226190D01*
X71285715Y-86702381D02*
X70714286Y-86702381D01*
X71000000Y-86702381D02*
X71000000Y-85702381D01*
X70904762Y-85845238D01*
X70809524Y-85940476D01*
X70714286Y-85988095D01*
X103261905Y-89952381D02*
X103261905Y-88952381D01*
X103642858Y-88952381D01*
X103738096Y-89000000D01*
X103785715Y-89047619D01*
X103833334Y-89142857D01*
X103833334Y-89285714D01*
X103785715Y-89380952D01*
X103738096Y-89428571D01*
X103642858Y-89476190D01*
X103261905Y-89476190D01*
X104690477Y-89285714D02*
X104690477Y-89952381D01*
X104452381Y-88904762D02*
X104214286Y-89619048D01*
X104833334Y-89619048D01*
X106761905Y-113452381D02*
X106761905Y-112452381D01*
X107142858Y-112452381D01*
X107238096Y-112500000D01*
X107285715Y-112547619D01*
X107333334Y-112642857D01*
X107333334Y-112785714D01*
X107285715Y-112880952D01*
X107238096Y-112928571D01*
X107142858Y-112976190D01*
X106761905Y-112976190D01*
X108238096Y-112452381D02*
X107761905Y-112452381D01*
X107714286Y-112928571D01*
X107761905Y-112880952D01*
X107857143Y-112833333D01*
X108095239Y-112833333D01*
X108190477Y-112880952D01*
X108238096Y-112928571D01*
X108285715Y-113023810D01*
X108285715Y-113261905D01*
X108238096Y-113357143D01*
X108190477Y-113404762D01*
X108095239Y-113452381D01*
X107857143Y-113452381D01*
X107761905Y-113404762D01*
X107714286Y-113357143D01*
X100011905Y-87452381D02*
X100011905Y-86452381D01*
X100392858Y-86452381D01*
X100488096Y-86500000D01*
X100535715Y-86547619D01*
X100583334Y-86642857D01*
X100583334Y-86785714D01*
X100535715Y-86880952D01*
X100488096Y-86928571D01*
X100392858Y-86976190D01*
X100011905Y-86976190D01*
X101440477Y-86452381D02*
X101250000Y-86452381D01*
X101154762Y-86500000D01*
X101107143Y-86547619D01*
X101011905Y-86690476D01*
X100964286Y-86880952D01*
X100964286Y-87261905D01*
X101011905Y-87357143D01*
X101059524Y-87404762D01*
X101154762Y-87452381D01*
X101345239Y-87452381D01*
X101440477Y-87404762D01*
X101488096Y-87357143D01*
X101535715Y-87261905D01*
X101535715Y-87023810D01*
X101488096Y-86928571D01*
X101440477Y-86880952D01*
X101345239Y-86833333D01*
X101154762Y-86833333D01*
X101059524Y-86880952D01*
X101011905Y-86928571D01*
X100964286Y-87023810D01*
X78404762Y-68797619D02*
X78309524Y-68750000D01*
X78214286Y-68654762D01*
X78071429Y-68511905D01*
X77976190Y-68464286D01*
X77880952Y-68464286D01*
X77928571Y-68702381D02*
X77833333Y-68654762D01*
X77738095Y-68559524D01*
X77690476Y-68369048D01*
X77690476Y-68035714D01*
X77738095Y-67845238D01*
X77833333Y-67750000D01*
X77928571Y-67702381D01*
X78119048Y-67702381D01*
X78214286Y-67750000D01*
X78309524Y-67845238D01*
X78357143Y-68035714D01*
X78357143Y-68369048D01*
X78309524Y-68559524D01*
X78214286Y-68654762D01*
X78119048Y-68702381D01*
X77928571Y-68702381D01*
X79309524Y-68702381D02*
X78738095Y-68702381D01*
X79023809Y-68702381D02*
X79023809Y-67702381D01*
X78928571Y-67845238D01*
X78833333Y-67940476D01*
X78738095Y-67988095D01*
X82404762Y-68797619D02*
X82309524Y-68750000D01*
X82214286Y-68654762D01*
X82071429Y-68511905D01*
X81976190Y-68464286D01*
X81880952Y-68464286D01*
X81928571Y-68702381D02*
X81833333Y-68654762D01*
X81738095Y-68559524D01*
X81690476Y-68369048D01*
X81690476Y-68035714D01*
X81738095Y-67845238D01*
X81833333Y-67750000D01*
X81928571Y-67702381D01*
X82119048Y-67702381D01*
X82214286Y-67750000D01*
X82309524Y-67845238D01*
X82357143Y-68035714D01*
X82357143Y-68369048D01*
X82309524Y-68559524D01*
X82214286Y-68654762D01*
X82119048Y-68702381D01*
X81928571Y-68702381D01*
X82738095Y-67797619D02*
X82785714Y-67750000D01*
X82880952Y-67702381D01*
X83119048Y-67702381D01*
X83214286Y-67750000D01*
X83261905Y-67797619D01*
X83309524Y-67892857D01*
X83309524Y-67988095D01*
X83261905Y-68130952D01*
X82690476Y-68702381D01*
X83309524Y-68702381D01*
X87404762Y-68797619D02*
X87309524Y-68750000D01*
X87214286Y-68654762D01*
X87071429Y-68511905D01*
X86976190Y-68464286D01*
X86880952Y-68464286D01*
X86928571Y-68702381D02*
X86833333Y-68654762D01*
X86738095Y-68559524D01*
X86690476Y-68369048D01*
X86690476Y-68035714D01*
X86738095Y-67845238D01*
X86833333Y-67750000D01*
X86928571Y-67702381D01*
X87119048Y-67702381D01*
X87214286Y-67750000D01*
X87309524Y-67845238D01*
X87357143Y-68035714D01*
X87357143Y-68369048D01*
X87309524Y-68559524D01*
X87214286Y-68654762D01*
X87119048Y-68702381D01*
X86928571Y-68702381D01*
X87690476Y-67702381D02*
X88309524Y-67702381D01*
X87976190Y-68083333D01*
X88119048Y-68083333D01*
X88214286Y-68130952D01*
X88261905Y-68178571D01*
X88309524Y-68273810D01*
X88309524Y-68511905D01*
X88261905Y-68607143D01*
X88214286Y-68654762D01*
X88119048Y-68702381D01*
X87833333Y-68702381D01*
X87738095Y-68654762D01*
X87690476Y-68607143D01*
X91404762Y-68797619D02*
X91309524Y-68750000D01*
X91214286Y-68654762D01*
X91071429Y-68511905D01*
X90976190Y-68464286D01*
X90880952Y-68464286D01*
X90928571Y-68702381D02*
X90833333Y-68654762D01*
X90738095Y-68559524D01*
X90690476Y-68369048D01*
X90690476Y-68035714D01*
X90738095Y-67845238D01*
X90833333Y-67750000D01*
X90928571Y-67702381D01*
X91119048Y-67702381D01*
X91214286Y-67750000D01*
X91309524Y-67845238D01*
X91357143Y-68035714D01*
X91357143Y-68369048D01*
X91309524Y-68559524D01*
X91214286Y-68654762D01*
X91119048Y-68702381D01*
X90928571Y-68702381D01*
X92214286Y-68035714D02*
X92214286Y-68702381D01*
X91976190Y-67654762D02*
X91738095Y-68369048D01*
X92357143Y-68369048D01*
X77333334Y-78952381D02*
X77000000Y-78476190D01*
X76761905Y-78952381D02*
X76761905Y-77952381D01*
X77142858Y-77952381D01*
X77238096Y-78000000D01*
X77285715Y-78047619D01*
X77333334Y-78142857D01*
X77333334Y-78285714D01*
X77285715Y-78380952D01*
X77238096Y-78428571D01*
X77142858Y-78476190D01*
X76761905Y-78476190D01*
X78285715Y-78952381D02*
X77714286Y-78952381D01*
X78000000Y-78952381D02*
X78000000Y-77952381D01*
X77904762Y-78095238D01*
X77809524Y-78190476D01*
X77714286Y-78238095D01*
X79833334Y-78952381D02*
X79500000Y-78476190D01*
X79261905Y-78952381D02*
X79261905Y-77952381D01*
X79642858Y-77952381D01*
X79738096Y-78000000D01*
X79785715Y-78047619D01*
X79833334Y-78142857D01*
X79833334Y-78285714D01*
X79785715Y-78380952D01*
X79738096Y-78428571D01*
X79642858Y-78476190D01*
X79261905Y-78476190D01*
X80214286Y-78047619D02*
X80261905Y-78000000D01*
X80357143Y-77952381D01*
X80595239Y-77952381D01*
X80690477Y-78000000D01*
X80738096Y-78047619D01*
X80785715Y-78142857D01*
X80785715Y-78238095D01*
X80738096Y-78380952D01*
X80166667Y-78952381D01*
X80785715Y-78952381D01*
X77333334Y-62452381D02*
X77000000Y-61976190D01*
X76761905Y-62452381D02*
X76761905Y-61452381D01*
X77142858Y-61452381D01*
X77238096Y-61500000D01*
X77285715Y-61547619D01*
X77333334Y-61642857D01*
X77333334Y-61785714D01*
X77285715Y-61880952D01*
X77238096Y-61928571D01*
X77142858Y-61976190D01*
X76761905Y-61976190D01*
X77666667Y-61452381D02*
X78285715Y-61452381D01*
X77952381Y-61833333D01*
X78095239Y-61833333D01*
X78190477Y-61880952D01*
X78238096Y-61928571D01*
X78285715Y-62023810D01*
X78285715Y-62261905D01*
X78238096Y-62357143D01*
X78190477Y-62404762D01*
X78095239Y-62452381D01*
X77809524Y-62452381D01*
X77714286Y-62404762D01*
X77666667Y-62357143D01*
X79833334Y-62452381D02*
X79500000Y-61976190D01*
X79261905Y-62452381D02*
X79261905Y-61452381D01*
X79642858Y-61452381D01*
X79738096Y-61500000D01*
X79785715Y-61547619D01*
X79833334Y-61642857D01*
X79833334Y-61785714D01*
X79785715Y-61880952D01*
X79738096Y-61928571D01*
X79642858Y-61976190D01*
X79261905Y-61976190D01*
X80690477Y-61785714D02*
X80690477Y-62452381D01*
X80452381Y-61404762D02*
X80214286Y-62119048D01*
X80833334Y-62119048D01*
X82333334Y-62452381D02*
X82000000Y-61976190D01*
X81761905Y-62452381D02*
X81761905Y-61452381D01*
X82142858Y-61452381D01*
X82238096Y-61500000D01*
X82285715Y-61547619D01*
X82333334Y-61642857D01*
X82333334Y-61785714D01*
X82285715Y-61880952D01*
X82238096Y-61928571D01*
X82142858Y-61976190D01*
X81761905Y-61976190D01*
X83238096Y-61452381D02*
X82761905Y-61452381D01*
X82714286Y-61928571D01*
X82761905Y-61880952D01*
X82857143Y-61833333D01*
X83095239Y-61833333D01*
X83190477Y-61880952D01*
X83238096Y-61928571D01*
X83285715Y-62023810D01*
X83285715Y-62261905D01*
X83238096Y-62357143D01*
X83190477Y-62404762D01*
X83095239Y-62452381D01*
X82857143Y-62452381D01*
X82761905Y-62404762D01*
X82714286Y-62357143D01*
X86333334Y-78952381D02*
X86000000Y-78476190D01*
X85761905Y-78952381D02*
X85761905Y-77952381D01*
X86142858Y-77952381D01*
X86238096Y-78000000D01*
X86285715Y-78047619D01*
X86333334Y-78142857D01*
X86333334Y-78285714D01*
X86285715Y-78380952D01*
X86238096Y-78428571D01*
X86142858Y-78476190D01*
X85761905Y-78476190D01*
X87190477Y-77952381D02*
X87000000Y-77952381D01*
X86904762Y-78000000D01*
X86857143Y-78047619D01*
X86761905Y-78190476D01*
X86714286Y-78380952D01*
X86714286Y-78761905D01*
X86761905Y-78857143D01*
X86809524Y-78904762D01*
X86904762Y-78952381D01*
X87095239Y-78952381D01*
X87190477Y-78904762D01*
X87238096Y-78857143D01*
X87285715Y-78761905D01*
X87285715Y-78523810D01*
X87238096Y-78428571D01*
X87190477Y-78380952D01*
X87095239Y-78333333D01*
X86904762Y-78333333D01*
X86809524Y-78380952D01*
X86761905Y-78428571D01*
X86714286Y-78523810D01*
X88833334Y-78952381D02*
X88500000Y-78476190D01*
X88261905Y-78952381D02*
X88261905Y-77952381D01*
X88642858Y-77952381D01*
X88738096Y-78000000D01*
X88785715Y-78047619D01*
X88833334Y-78142857D01*
X88833334Y-78285714D01*
X88785715Y-78380952D01*
X88738096Y-78428571D01*
X88642858Y-78476190D01*
X88261905Y-78476190D01*
X89166667Y-77952381D02*
X89833334Y-77952381D01*
X89404762Y-78952381D01*
X86333334Y-62452381D02*
X86000000Y-61976190D01*
X85761905Y-62452381D02*
X85761905Y-61452381D01*
X86142858Y-61452381D01*
X86238096Y-61500000D01*
X86285715Y-61547619D01*
X86333334Y-61642857D01*
X86333334Y-61785714D01*
X86285715Y-61880952D01*
X86238096Y-61928571D01*
X86142858Y-61976190D01*
X85761905Y-61976190D01*
X86904762Y-61880952D02*
X86809524Y-61833333D01*
X86761905Y-61785714D01*
X86714286Y-61690476D01*
X86714286Y-61642857D01*
X86761905Y-61547619D01*
X86809524Y-61500000D01*
X86904762Y-61452381D01*
X87095239Y-61452381D01*
X87190477Y-61500000D01*
X87238096Y-61547619D01*
X87285715Y-61642857D01*
X87285715Y-61690476D01*
X87238096Y-61785714D01*
X87190477Y-61833333D01*
X87095239Y-61880952D01*
X86904762Y-61880952D01*
X86809524Y-61928571D01*
X86761905Y-61976190D01*
X86714286Y-62071429D01*
X86714286Y-62261905D01*
X86761905Y-62357143D01*
X86809524Y-62404762D01*
X86904762Y-62452381D01*
X87095239Y-62452381D01*
X87190477Y-62404762D01*
X87238096Y-62357143D01*
X87285715Y-62261905D01*
X87285715Y-62071429D01*
X87238096Y-61976190D01*
X87190477Y-61928571D01*
X87095239Y-61880952D01*
X88833334Y-62452381D02*
X88500000Y-61976190D01*
X88261905Y-62452381D02*
X88261905Y-61452381D01*
X88642858Y-61452381D01*
X88738096Y-61500000D01*
X88785715Y-61547619D01*
X88833334Y-61642857D01*
X88833334Y-61785714D01*
X88785715Y-61880952D01*
X88738096Y-61928571D01*
X88642858Y-61976190D01*
X88261905Y-61976190D01*
X89309524Y-62452381D02*
X89500000Y-62452381D01*
X89595239Y-62404762D01*
X89642858Y-62357143D01*
X89738096Y-62214286D01*
X89785715Y-62023810D01*
X89785715Y-61642857D01*
X89738096Y-61547619D01*
X89690477Y-61500000D01*
X89595239Y-61452381D01*
X89404762Y-61452381D01*
X89309524Y-61500000D01*
X89261905Y-61547619D01*
X89214286Y-61642857D01*
X89214286Y-61880952D01*
X89261905Y-61976190D01*
X89309524Y-62023810D01*
X89404762Y-62071429D01*
X89595239Y-62071429D01*
X89690477Y-62023810D01*
X89738096Y-61976190D01*
X89785715Y-61880952D01*
X90857143Y-62452381D02*
X90523809Y-61976190D01*
X90285714Y-62452381D02*
X90285714Y-61452381D01*
X90666667Y-61452381D01*
X90761905Y-61500000D01*
X90809524Y-61547619D01*
X90857143Y-61642857D01*
X90857143Y-61785714D01*
X90809524Y-61880952D01*
X90761905Y-61928571D01*
X90666667Y-61976190D01*
X90285714Y-61976190D01*
X91809524Y-62452381D02*
X91238095Y-62452381D01*
X91523809Y-62452381D02*
X91523809Y-61452381D01*
X91428571Y-61595238D01*
X91333333Y-61690476D01*
X91238095Y-61738095D01*
X92428571Y-61452381D02*
X92523810Y-61452381D01*
X92619048Y-61500000D01*
X92666667Y-61547619D01*
X92714286Y-61642857D01*
X92761905Y-61833333D01*
X92761905Y-62071429D01*
X92714286Y-62261905D01*
X92666667Y-62357143D01*
X92619048Y-62404762D01*
X92523810Y-62452381D01*
X92428571Y-62452381D01*
X92333333Y-62404762D01*
X92285714Y-62357143D01*
X92238095Y-62261905D01*
X92190476Y-62071429D01*
X92190476Y-61833333D01*
X92238095Y-61642857D01*
X92285714Y-61547619D01*
X92333333Y-61500000D01*
X92428571Y-61452381D01*
X67656603Y-98966006D02*
X67704222Y-99013625D01*
X67751841Y-99156482D01*
X67751841Y-99251720D01*
X67704222Y-99394578D01*
X67608984Y-99489816D01*
X67513746Y-99537435D01*
X67323270Y-99585054D01*
X67180412Y-99585054D01*
X66989936Y-99537435D01*
X66894698Y-99489816D01*
X66799460Y-99394578D01*
X66751841Y-99251720D01*
X66751841Y-99156482D01*
X66799460Y-99013625D01*
X66847079Y-98966006D01*
X67751841Y-98013625D02*
X67751841Y-98585054D01*
X67751841Y-98299340D02*
X66751841Y-98299340D01*
X66894698Y-98394578D01*
X66989936Y-98489816D01*
X67037555Y-98585054D01*
X103557683Y-98867326D02*
X103605302Y-98914945D01*
X103652921Y-99057802D01*
X103652921Y-99153040D01*
X103605302Y-99295898D01*
X103510064Y-99391136D01*
X103414826Y-99438755D01*
X103224350Y-99486374D01*
X103081492Y-99486374D01*
X102891016Y-99438755D01*
X102795778Y-99391136D01*
X102700540Y-99295898D01*
X102652921Y-99153040D01*
X102652921Y-99057802D01*
X102700540Y-98914945D01*
X102748159Y-98867326D01*
X102748159Y-98486374D02*
X102700540Y-98438755D01*
X102652921Y-98343517D01*
X102652921Y-98105421D01*
X102700540Y-98010183D01*
X102748159Y-97962564D01*
X102843397Y-97914945D01*
X102938635Y-97914945D01*
X103081492Y-97962564D01*
X103652921Y-98533993D01*
X103652921Y-97914945D01*
X66583334Y-88452381D02*
X66107143Y-88452381D01*
X66107143Y-87452381D01*
X67440477Y-88452381D02*
X66869048Y-88452381D01*
X67154762Y-88452381D02*
X67154762Y-87452381D01*
X67059524Y-87595238D01*
X66964286Y-87690476D01*
X66869048Y-87738095D01*
M02*
